Tutorial webscraping
…
soc_staff_3 <- soc_staff %>% 
  rvest::html_element("body") %>% 
  rvest::html_table() 

soc_staff_3

## # A tibble: 51 × 2
##    X1                               X2                                                              
##    <chr>                            <chr>                                                           
##  1 Staff:                           Expertise:                                                      
##  2 Batenburg, prof. dr. R. (Ronald) Healthcare, labour market and healthcare professions and traini…
##  3 Begall, dr. K.H. (Katia)         Family, life course, labour market participation, division of h…
##  4 Bekhuis, dr. H. (Hidde)          Welfare state, nationalism and sports                           
##  5 Berg, dr. L. van den (Lonneke)   Family, life course and transition to adulthood                 
##  6 Blommaert, dr. L. (Lieselotte)   Discrimination and inequality on the labour market              
##  7 Eisinga, prof. dr. R.N. (Rob)    Methods of research and statistics                              
##  8 Gesthuizen, dr. M.J.W. (Maurice) Poverty en social cohesion                                      
##  9 Geurts, dr. P.G. (Nella)         Integration and migration                                       
## 10 Glas, dr. S. (Saskia)            Islam, gender attitudes and sexuality                           
## # ℹ 41 more rows
…
