Construction Data
…
## Warning: Unknown or uninitialised column: `works_count`.

## Warning: Unknown or uninitialised column: `cited_by_count`.

# create 0-4 scale for h-index
df_ego %>% count(h_index)

## # A tibble: 53 × 2
##    h_index     n
##      <dbl> <int>
##  1       0    12
##  2       1    16
##  3       2    20
##  4       3    29
##  5       4    14
##  6       5    12
##  7       6     8
##  8       7     8
##  9       8    12
## 10       9     6
## # ℹ 43 more rows
…
